<svg width="57" height="57" viewBox="0 0 57 57" fill="none" xmlns="http://www.w3.org/2000/svg">
<path d="M21.375 35.625C15.0337 35.625 2.375 38.8075 2.375 45.125V49.875H40.375V45.125C40.375 38.8075 27.7162 35.625 21.375 35.625ZM7.125 45.125C7.6475 43.415 14.9862 40.375 21.375 40.375C27.7875 40.375 35.15 43.4388 35.625 45.125H7.125Z" fill="#858585"/>
<path d="M11.2575 21.375H11.875C11.875 26.6238 16.1263 30.875 21.375 30.875C26.6238 30.875 30.875 26.6238 30.875 21.375H31.4925C32.1338 21.375 32.6563 20.8525 32.6563 20.2113V20.1638C32.6563 19.5225 32.1338 19 31.4925 19H30.875C30.875 15.485 28.9513 12.4688 26.125 10.8063V13.0625C26.125 13.7275 25.6025 14.25 24.9375 14.25C24.2725 14.25 23.75 13.7275 23.75 13.0625V9.8325C22.99 9.6425 22.2063 9.5 21.375 9.5C20.5438 9.5 19.76 9.6425 19 9.8325V13.0625C19 13.7275 18.4775 14.25 17.8125 14.25C17.1475 14.25 16.625 13.7275 16.625 13.0625V10.8063C13.7988 12.4688 11.875 15.485 11.875 19H11.2575C10.6162 19 10.0938 19.5225 10.0938 20.1638V20.235C10.0938 20.8525 10.6162 21.375 11.2575 21.375ZM26.125 21.375C26.125 23.9875 23.9875 26.125 21.375 26.125C18.7625 26.125 16.625 23.9875 16.625 21.375H26.125Z" fill="#858585"/>
<path d="M52.2024 14.7962L54.4111 12.825L52.6299 9.7375L49.8036 10.6637C49.4711 10.4025 49.0911 10.1887 48.6874 10.0225L48.0936 7.125H44.5311L43.9374 10.0225C43.5336 10.1887 43.1536 10.4025 42.7974 10.6637L39.9949 9.7375L38.2136 12.825L40.4224 14.7962C40.3749 15.2 40.3749 15.6275 40.4224 16.0312L38.2136 18.05L39.9949 21.1375L42.8449 20.235C43.1536 20.4725 43.5099 20.6625 43.8661 20.8287L44.5311 23.75H48.0936L48.7349 20.8525C49.1149 20.6862 49.4474 20.4962 49.7799 20.2587L52.6061 21.1612L54.3874 18.0737L52.1786 16.055C52.2499 15.6037 52.2261 15.2 52.2024 14.7962ZM46.3124 18.4062C44.6736 18.4062 43.3436 17.0762 43.3436 15.4375C43.3436 13.7987 44.6736 12.4687 46.3124 12.4687C47.9511 12.4687 49.2811 13.7987 49.2811 15.4375C49.2811 17.0762 47.9511 18.4062 46.3124 18.4062Z" fill="#858585"/>
<path d="M46.0748 25.6263L44.056 26.2913C43.8185 26.1013 43.5573 25.9588 43.2723 25.84L42.8448 23.75H40.3035L39.876 25.8163C39.591 25.935 39.306 26.1013 39.0685 26.2675L37.0735 25.6025L35.791 27.8113L37.3585 29.2125C37.3348 29.5213 37.3348 29.8063 37.3585 30.0913L35.791 31.54L37.0735 33.7488L39.116 33.1075C39.3535 33.2738 39.591 33.4163 39.8523 33.535L40.2798 35.625H42.821L43.2723 33.5588C43.5335 33.44 43.7948 33.2975 44.0323 33.1313L46.051 33.7725L47.3335 31.5638L45.766 30.115C45.7898 29.8063 45.7898 29.5213 45.766 29.2363L47.3335 27.835L46.0748 25.6263ZM41.5623 31.8013C40.3985 31.8013 39.4485 30.8513 39.4485 29.6875C39.4485 28.5238 40.3985 27.5738 41.5623 27.5738C42.726 27.5738 43.676 28.5238 43.676 29.6875C43.676 30.8513 42.726 31.8013 41.5623 31.8013Z" fill="#858585"/>
</svg>
