<svg width="60" height="60" viewBox="0 0 60 60" fill="none" xmlns="http://www.w3.org/2000/svg">
<path d="M17.5 22.5H5V17.5H17.5V22.5ZM17.5 30H5V35H17.5V30ZM51.475 47.5L41.9 37.925C39.9 39.225 37.55 40 35 40C28.1 40 22.5 34.4 22.5 27.5C22.5 20.6 28.1 15 35 15C41.9 15 47.5 20.6 47.5 27.5C47.5 30.05 46.725 32.4 45.425 34.375L55 43.975L51.475 47.5ZM42.5 27.5C42.5 23.375 39.125 20 35 20C30.875 20 27.5 23.375 27.5 27.5C27.5 31.625 30.875 35 35 35C39.125 35 42.5 31.625 42.5 27.5ZM5 47.5H30V42.5H5V47.5Z" fill="#858585"/>
</svg>
